{
  "request": {
    "method": "POST",
    "urlPattern": "/mockInboxNotification",
    "bodyPatterns": [
      {
        "contains": "onMessageStatusRequest"
      }
    ]
  },
  "response": {
    "status": 200,
    "body": "<soapenv:Envelope xmlns:soapenv='http://schemas.xmlsoap.org/soap/envelope/' xmlns:urn='urn:eu:europa:ec:etrustex:integration:service:notification:v2.0'><soapenv:Header/><soapenv:Body><urn:onMessageStatusResponse/></soapenv:Body></soapenv:Envelope>",
    "headers": {
      "Content-Type": "text/xml; charset=utf-8"
    }
  }
}
